%YAML 1.1
%TAG !u! tag:unity3d.com,2011:
--- !u!1 &924302318
GameObject:
  m_ObjectHideFlags: 0
  m_CorrespondingSourceObject: {fileID: 0}
  m_PrefabInstance: {fileID: 0}
  m_PrefabAsset: {fileID: 0}
  serializedVersion: 6
  m_Component:
  - component: {fileID: 924302319}
  - component: {fileID: 924302320}
  - component: {fileID: 924302321}
  m_Layer: 5
  m_Name: Icon.Image
  m_TagString: Untagged
  m_Icon: {fileID: 0}
  m_NavMeshLayer: 0
  m_StaticEditorFlags: 0
  m_IsActive: 1
--- !u!224 &924302319
RectTransform:
  m_ObjectHideFlags: 0
  m_CorrespondingSourceObject: {fileID: 0}
  m_PrefabInstance: {fileID: 0}
  m_PrefabAsset: {fileID: 0}
  m_GameObject: {fileID: 924302318}
  m_LocalRotation: {x: 0, y: 0, z: 0, w: 1}
  m_LocalPosition: {x: 0, y: 0, z: 0}
  m_LocalScale: {x: 1, y: 1, z: 1}
  m_Children: []
  m_Father: {fileID: 1761649730882166258}
  m_RootOrder: 0
  m_LocalEulerAnglesHint: {x: 0, y: 0, z: 0}
  m_AnchorMin: {x: 0.5, y: 0.5}
  m_AnchorMax: {x: 0.5, y: 0.5}
  m_AnchoredPosition: {x: 0.0000076293945, y: 0}
  m_SizeDelta: {x: 64, y: 64}
  m_Pivot: {x: 0.5, y: 0.5}
--- !u!222 &924302320
CanvasRenderer:
  m_ObjectHideFlags: 0
  m_CorrespondingSourceObject: {fileID: 0}
  m_PrefabInstance: {fileID: 0}
  m_PrefabAsset: {fileID: 0}
  m_GameObject: {fileID: 924302318}
  m_CullTransparentMesh: 1
--- !u!114 &924302321
MonoBehaviour:
  m_ObjectHideFlags: 0
  m_CorrespondingSourceObject: {fileID: 0}
  m_PrefabInstance: {fileID: 0}
  m_PrefabAsset: {fileID: 0}
  m_GameObject: {fileID: 924302318}
  m_Enabled: 1
  m_EditorHideFlags: 0
  m_Script: {fileID: 11500000, guid: fe87c0e1cc204ed48ad3b37840f39efc, type: 3}
  m_Name: 
  m_EditorClassIdentifier: 
  m_Material: {fileID: 0}
  m_Color: {r: 1, g: 1, b: 1, a: 0.69803923}
  m_RaycastTarget: 1
  m_RaycastPadding: {x: 0, y: 0, z: 0, w: 0}
  m_Maskable: 1
  m_OnCullStateChanged:
    m_PersistentCalls:
      m_Calls: []
  m_Sprite: {fileID: 21300000, guid: e5ff637deef681a43a3d9daa26e22a31, type: 3}
  m_Type: 0
  m_PreserveAspect: 0
  m_FillCenter: 1
  m_FillMethod: 4
  m_FillAmount: 1
  m_FillClockwise: 1
  m_FillOrigin: 0
  m_UseSpriteMesh: 0
  m_PixelsPerUnitMultiplier: 1
--- !u!1001 &2102330220160770369
PrefabInstance:
  m_ObjectHideFlags: 0
  serializedVersion: 2
  m_Modification:
    m_TransformParent: {fileID: 0}
    m_Modifications:
    - target: {fileID: 386844658927713458, guid: 296660675e7d11743bbdfdce94111233, type: 3}
      propertyPath: m_Name
      value: Music.GameButton
      objectReference: {fileID: 0}
    - target: {fileID: 386844658927713459, guid: 296660675e7d11743bbdfdce94111233, type: 3}
      propertyPath: m_Pivot.x
      value: 0.5
      objectReference: {fileID: 0}
    - target: {fileID: 386844658927713459, guid: 296660675e7d11743bbdfdce94111233, type: 3}
      propertyPath: m_Pivot.y
      value: 0.5
      objectReference: {fileID: 0}
    - target: {fileID: 386844658927713459, guid: 296660675e7d11743bbdfdce94111233, type: 3}
      propertyPath: m_RootOrder
      value: 0
      objectReference: {fileID: 0}
    - target: {fileID: 386844658927713459, guid: 296660675e7d11743bbdfdce94111233, type: 3}
      propertyPath: m_AnchorMax.x
      value: 0.5
      objectReference: {fileID: 0}
    - target: {fileID: 386844658927713459, guid: 296660675e7d11743bbdfdce94111233, type: 3}
      propertyPath: m_AnchorMax.y
      value: 0.5
      objectReference: {fileID: 0}
    - target: {fileID: 386844658927713459, guid: 296660675e7d11743bbdfdce94111233, type: 3}
      propertyPath: m_AnchorMin.x
      value: 0.5
      objectReference: {fileID: 0}
    - target: {fileID: 386844658927713459, guid: 296660675e7d11743bbdfdce94111233, type: 3}
      propertyPath: m_AnchorMin.y
      value: 0.5
      objectReference: {fileID: 0}
    - target: {fileID: 386844658927713459, guid: 296660675e7d11743bbdfdce94111233, type: 3}
      propertyPath: m_SizeDelta.x
      value: 100
      objectReference: {fileID: 0}
    - target: {fileID: 386844658927713459, guid: 296660675e7d11743bbdfdce94111233, type: 3}
      propertyPath: m_SizeDelta.y
      value: 100
      objectReference: {fileID: 0}
    - target: {fileID: 386844658927713459, guid: 296660675e7d11743bbdfdce94111233, type: 3}
      propertyPath: m_LocalPosition.x
      value: 0
      objectReference: {fileID: 0}
    - target: {fileID: 386844658927713459, guid: 296660675e7d11743bbdfdce94111233, type: 3}
      propertyPath: m_LocalPosition.y
      value: 0
      objectReference: {fileID: 0}
    - target: {fileID: 386844658927713459, guid: 296660675e7d11743bbdfdce94111233, type: 3}
      propertyPath: m_LocalPosition.z
      value: 0
      objectReference: {fileID: 0}
    - target: {fileID: 386844658927713459, guid: 296660675e7d11743bbdfdce94111233, type: 3}
      propertyPath: m_LocalRotation.w
      value: 1
      objectReference: {fileID: 0}
    - target: {fileID: 386844658927713459, guid: 296660675e7d11743bbdfdce94111233, type: 3}
      propertyPath: m_LocalRotation.x
      value: 0
      objectReference: {fileID: 0}
    - target: {fileID: 386844658927713459, guid: 296660675e7d11743bbdfdce94111233, type: 3}
      propertyPath: m_LocalRotation.y
      value: 0
      objectReference: {fileID: 0}
    - target: {fileID: 386844658927713459, guid: 296660675e7d11743bbdfdce94111233, type: 3}
      propertyPath: m_LocalRotation.z
      value: 0
      objectReference: {fileID: 0}
    - target: {fileID: 386844658927713459, guid: 296660675e7d11743bbdfdce94111233, type: 3}
      propertyPath: m_AnchoredPosition.x
      value: -128
      objectReference: {fileID: 0}
    - target: {fileID: 386844658927713459, guid: 296660675e7d11743bbdfdce94111233, type: 3}
      propertyPath: m_AnchoredPosition.y
      value: 120.999985
      objectReference: {fileID: 0}
    - target: {fileID: 386844658927713459, guid: 296660675e7d11743bbdfdce94111233, type: 3}
      propertyPath: m_LocalEulerAnglesHint.x
      value: 0
      objectReference: {fileID: 0}
    - target: {fileID: 386844658927713459, guid: 296660675e7d11743bbdfdce94111233, type: 3}
      propertyPath: m_LocalEulerAnglesHint.y
      value: 0
      objectReference: {fileID: 0}
    - target: {fileID: 386844658927713459, guid: 296660675e7d11743bbdfdce94111233, type: 3}
      propertyPath: m_LocalEulerAnglesHint.z
      value: 0
      objectReference: {fileID: 0}
    m_RemovedComponents: []
  m_SourcePrefab: {fileID: 100100000, guid: 296660675e7d11743bbdfdce94111233, type: 3}
--- !u!224 &1761649730882166258 stripped
RectTransform:
  m_CorrespondingSourceObject: {fileID: 386844658927713459, guid: 296660675e7d11743bbdfdce94111233, type: 3}
  m_PrefabInstance: {fileID: 2102330220160770369}
  m_PrefabAsset: {fileID: 0}
