%YAML 1.1
%TAG !u! tag:unity3d.com,2011:
--- !u!114 &11400000
MonoBehaviour:
  m_ObjectHideFlags: 0
  m_CorrespondingSourceObject: {fileID: 0}
  m_PrefabInstance: {fileID: 0}
  m_PrefabAsset: {fileID: 0}
  m_GameObject: {fileID: 0}
  m_Enabled: 1
  m_EditorHideFlags: 0
  m_Script: {fileID: 11500000, guid: 1a00c2fcde6d4ad38065c34b2df372b9, type: 3}
  m_Name: barrack_lv2
  m_EditorClassIdentifier: 
  minDamage: 3
  maxDamage: 4
  attackSpeed: 1.6
  maxHealth: 110
