%YAML 1.1
%TAG !u! tag:unity3d.com,2011:
--- !u!114 &11400000
MonoBehaviour:
  m_ObjectHideFlags: 0
  m_CorrespondingSourceObject: {fileID: 0}
  m_PrefabInstance: {fileID: 0}
  m_PrefabAsset: {fileID: 0}
  m_GameObject: {fileID: 0}
  m_Enabled: 1
  m_EditorHideFlags: 0
  m_Script: {fileID: 11500000, guid: 9898f0ebced24e59acc923ba70d5e8e2, type: 3}
  m_Name: recon_lv2
  m_EditorClassIdentifier: 
  enumValue: {fileID: 11400000, guid: fd5f54b1edd5e1040a02355f4b8ea49b, type: 2}
  towerPrefab: {fileID: 3677258560958360516, guid: 0af2016d749856c41a5383096e2cc28a, type: 3}
  displayName: recon_lv2
  description:
  - Line 1
  - Line 2
  - Line 3
  forSell: 0
  price: 160
  upgradeTowers:
  - {fileID: 11400000, guid: 87d69e0a79b169047a260cc9bd0e10a2, type: 2}
  - {fileID: 11400000, guid: c6fb24d7280e00344bf2273da0114897, type: 2}
