%YAML 1.1
%TAG !u! tag:unity3d.com,2011:
--- !u!114 &11400000
MonoBehaviour:
  m_ObjectHideFlags: 0
  m_CorrespondingSourceObject: {fileID: 0}
  m_PrefabInstance: {fileID: 0}
  m_PrefabAsset: {fileID: 0}
  m_GameObject: {fileID: 0}
  m_Enabled: 1
  m_EditorHideFlags: 0
  m_Script: {fileID: 11500000, guid: 9898f0ebced24e59acc923ba70d5e8e2, type: 3}
  m_Name: engineer_lv1
  m_EditorClassIdentifier: 
  enumValue: {fileID: 11400000, guid: c63e463d1cf55564eadf083e4cc6ab98, type: 2}
  towerPrefab: {fileID: 3677258560958360516, guid: 7867ea26619c602448dbe9f7ba6fb690, type: 3}
  displayName: engineer_lv1
  description:
  - Line 1
  - Line 2
  - Line 3
  forSell: 0
  price: 125
  upgradeTowers:
  - {fileID: 11400000, guid: b6336688dffadb74ab5ec6d89c6c7cdf, type: 2}
  - {fileID: 11400000, guid: fec51e6b33a6a6948b970dfb27245e4e, type: 2}
