%YAML 1.1
%TAG !u! tag:unity3d.com,2011:
--- !u!95 &8417668327281750878
Animator:
  serializedVersion: 3
  m_ObjectHideFlags: 0
  m_CorrespondingSourceObject: {fileID: 0}
  m_PrefabInstance: {fileID: 0}
  m_PrefabAsset: {fileID: 0}
  m_GameObject: {fileID: 432628046245192841}
  m_Enabled: 1
  m_Avatar: {fileID: 0}
  m_Controller: {fileID: 9100000, guid: 61c84b8fd291b684f975417503df1c7d, type: 2}
  m_CullingMode: 0
  m_UpdateMode: 0
  m_ApplyRootMotion: 0
  m_LinearVelocityBlending: 0
  m_WarningMessage: 
  m_HasTransformHierarchy: 1
  m_AllowConstantClipSamplingOptimization: 1
  m_KeepAnimatorControllerStateOnDisable: 0
--- !u!1 &6500546691508917738
GameObject:
  m_ObjectHideFlags: 0
  m_CorrespondingSourceObject: {fileID: 0}
  m_PrefabInstance: {fileID: 0}
  m_PrefabAsset: {fileID: 0}
  serializedVersion: 6
  m_Component:
  - component: {fileID: 4664291358534231697}
  m_Layer: 0
  m_Name: zombie_dog_prefab
  m_TagString: Untagged
  m_Icon: {fileID: 0}
  m_NavMeshLayer: 0
  m_StaticEditorFlags: 0
  m_IsActive: 1
--- !u!4 &4664291358534231697
Transform:
  m_ObjectHideFlags: 0
  m_CorrespondingSourceObject: {fileID: 0}
  m_PrefabInstance: {fileID: 0}
  m_PrefabAsset: {fileID: 0}
  m_GameObject: {fileID: 6500546691508917738}
  m_LocalRotation: {x: 0, y: 0, z: 0, w: 1}
  m_LocalPosition: {x: -6.88, y: 0, z: 2.52}
  m_LocalScale: {x: 1, y: 1, z: 1}
  m_Children:
  - {fileID: 957806873642319411}
  m_Father: {fileID: 0}
  m_RootOrder: 0
  m_LocalEulerAnglesHint: {x: 0, y: 0, z: 0}
--- !u!1001 &774734840655108568
PrefabInstance:
  m_ObjectHideFlags: 0
  serializedVersion: 2
  m_Modification:
    m_TransformParent: {fileID: 4664291358534231697}
    m_Modifications:
    - target: {fileID: -8679921383154817045, guid: 3c0fbfa7ad0767148976ca2940f67040, type: 3}
      propertyPath: m_RootOrder
      value: 0
      objectReference: {fileID: 0}
    - target: {fileID: -8679921383154817045, guid: 3c0fbfa7ad0767148976ca2940f67040, type: 3}
      propertyPath: m_LocalScale.x
      value: 1
      objectReference: {fileID: 0}
    - target: {fileID: -8679921383154817045, guid: 3c0fbfa7ad0767148976ca2940f67040, type: 3}
      propertyPath: m_LocalScale.y
      value: 1
      objectReference: {fileID: 0}
    - target: {fileID: -8679921383154817045, guid: 3c0fbfa7ad0767148976ca2940f67040, type: 3}
      propertyPath: m_LocalScale.z
      value: 1
      objectReference: {fileID: 0}
    - target: {fileID: -8679921383154817045, guid: 3c0fbfa7ad0767148976ca2940f67040, type: 3}
      propertyPath: m_LocalPosition.x
      value: 0
      objectReference: {fileID: 0}
    - target: {fileID: -8679921383154817045, guid: 3c0fbfa7ad0767148976ca2940f67040, type: 3}
      propertyPath: m_LocalPosition.y
      value: 0
      objectReference: {fileID: 0}
    - target: {fileID: -8679921383154817045, guid: 3c0fbfa7ad0767148976ca2940f67040, type: 3}
      propertyPath: m_LocalPosition.z
      value: 0
      objectReference: {fileID: 0}
    - target: {fileID: -8679921383154817045, guid: 3c0fbfa7ad0767148976ca2940f67040, type: 3}
      propertyPath: m_LocalRotation.w
      value: 1
      objectReference: {fileID: 0}
    - target: {fileID: -8679921383154817045, guid: 3c0fbfa7ad0767148976ca2940f67040, type: 3}
      propertyPath: m_LocalRotation.x
      value: 0
      objectReference: {fileID: 0}
    - target: {fileID: -8679921383154817045, guid: 3c0fbfa7ad0767148976ca2940f67040, type: 3}
      propertyPath: m_LocalRotation.y
      value: 0
      objectReference: {fileID: 0}
    - target: {fileID: -8679921383154817045, guid: 3c0fbfa7ad0767148976ca2940f67040, type: 3}
      propertyPath: m_LocalRotation.z
      value: 0
      objectReference: {fileID: 0}
    - target: {fileID: -8679921383154817045, guid: 3c0fbfa7ad0767148976ca2940f67040, type: 3}
      propertyPath: m_LocalEulerAnglesHint.x
      value: 0
      objectReference: {fileID: 0}
    - target: {fileID: -8679921383154817045, guid: 3c0fbfa7ad0767148976ca2940f67040, type: 3}
      propertyPath: m_LocalEulerAnglesHint.y
      value: 0
      objectReference: {fileID: 0}
    - target: {fileID: -8679921383154817045, guid: 3c0fbfa7ad0767148976ca2940f67040, type: 3}
      propertyPath: m_LocalEulerAnglesHint.z
      value: 0
      objectReference: {fileID: 0}
    - target: {fileID: -4120370102777979094, guid: 3c0fbfa7ad0767148976ca2940f67040, type: 3}
      propertyPath: m_LocalRotation.w
      value: 0.57821375
      objectReference: {fileID: 0}
    - target: {fileID: -4120370102777979094, guid: 3c0fbfa7ad0767148976ca2940f67040, type: 3}
      propertyPath: m_LocalRotation.x
      value: -0.40702438
      objectReference: {fileID: 0}
    - target: {fileID: -4120370102777979094, guid: 3c0fbfa7ad0767148976ca2940f67040, type: 3}
      propertyPath: m_LocalRotation.y
      value: -0.40702438
      objectReference: {fileID: 0}
    - target: {fileID: -4120370102777979094, guid: 3c0fbfa7ad0767148976ca2940f67040, type: 3}
      propertyPath: m_LocalRotation.z
      value: 0.57821375
      objectReference: {fileID: 0}
    - target: {fileID: -4120370102777979094, guid: 3c0fbfa7ad0767148976ca2940f67040, type: 3}
      propertyPath: m_LocalEulerAnglesHint.x
      value: 0
      objectReference: {fileID: 0}
    - target: {fileID: -4120370102777979094, guid: 3c0fbfa7ad0767148976ca2940f67040, type: 3}
      propertyPath: m_LocalEulerAnglesHint.y
      value: 0
      objectReference: {fileID: 0}
    - target: {fileID: -4120370102777979094, guid: 3c0fbfa7ad0767148976ca2940f67040, type: 3}
      propertyPath: m_LocalEulerAnglesHint.z
      value: 0
      objectReference: {fileID: 0}
    - target: {fileID: -3887185075125053422, guid: 3c0fbfa7ad0767148976ca2940f67040, type: 3}
      propertyPath: m_Materials.Array.data[0]
      value: 
      objectReference: {fileID: 2100000, guid: f3a945dd468fd884995f73a79f7594be, type: 2}
    - target: {fileID: 919132149155446097, guid: 3c0fbfa7ad0767148976ca2940f67040, type: 3}
      propertyPath: m_Name
      value: fbx_zombie_dog
      objectReference: {fileID: 0}
    - target: {fileID: 7073389300739379652, guid: 3c0fbfa7ad0767148976ca2940f67040, type: 3}
      propertyPath: m_LocalRotation.w
      value: 0.5
      objectReference: {fileID: 0}
    - target: {fileID: 7073389300739379652, guid: 3c0fbfa7ad0767148976ca2940f67040, type: 3}
      propertyPath: m_LocalRotation.x
      value: -0.5
      objectReference: {fileID: 0}
    - target: {fileID: 7073389300739379652, guid: 3c0fbfa7ad0767148976ca2940f67040, type: 3}
      propertyPath: m_LocalRotation.y
      value: 0.5
      objectReference: {fileID: 0}
    - target: {fileID: 7073389300739379652, guid: 3c0fbfa7ad0767148976ca2940f67040, type: 3}
      propertyPath: m_LocalRotation.z
      value: -0.5
      objectReference: {fileID: 0}
    - target: {fileID: 7073389300739379652, guid: 3c0fbfa7ad0767148976ca2940f67040, type: 3}
      propertyPath: m_LocalEulerAnglesHint.x
      value: 0
      objectReference: {fileID: 0}
    - target: {fileID: 7073389300739379652, guid: 3c0fbfa7ad0767148976ca2940f67040, type: 3}
      propertyPath: m_LocalEulerAnglesHint.y
      value: 90
      objectReference: {fileID: 0}
    - target: {fileID: 7073389300739379652, guid: 3c0fbfa7ad0767148976ca2940f67040, type: 3}
      propertyPath: m_LocalEulerAnglesHint.z
      value: -90
      objectReference: {fileID: 0}
    m_RemovedComponents: []
  m_SourcePrefab: {fileID: 100100000, guid: 3c0fbfa7ad0767148976ca2940f67040, type: 3}
--- !u!1 &432628046245192841 stripped
GameObject:
  m_CorrespondingSourceObject: {fileID: 919132149155446097, guid: 3c0fbfa7ad0767148976ca2940f67040, type: 3}
  m_PrefabInstance: {fileID: 774734840655108568}
  m_PrefabAsset: {fileID: 0}
--- !u!4 &957806873642319411 stripped
Transform:
  m_CorrespondingSourceObject: {fileID: -8679921383154817045, guid: 3c0fbfa7ad0767148976ca2940f67040, type: 3}
  m_PrefabInstance: {fileID: 774734840655108568}
  m_PrefabAsset: {fileID: 0}
