%YAML 1.1
%TAG !u! tag:unity3d.com,2011:
--- !u!114 &11400000
MonoBehaviour:
  m_ObjectHideFlags: 0
  m_CorrespondingSourceObject: {fileID: 0}
  m_PrefabInstance: {fileID: 0}
  m_PrefabAsset: {fileID: 0}
  m_GameObject: {fileID: 0}
  m_Enabled: 1
  m_EditorHideFlags: 0
  m_Script: {fileID: 11500000, guid: cb81a1b143444b939d682ba50855b4c8, type: 3}
  m_Name: Dron Weaon
  m_EditorClassIdentifier: 
  enumValue: {fileID: 11400000, guid: 78d3626a5b757c54fa63fa9ac1b3f0bc, type: 2}
  weaponType: 0
  projectileType: 2
  displayName: Cool Weaponss
  description:
  - Line 1
  - Line 2
  isAuto: 1
  minDamage: 1.5
  maxDamage: 4
  speed: 70
  fireRate: 1
  maxAmmo: 10
  reloadTime: 2
  range: 10
  price: 0
  soundType: {fileID: 11400000, guid: 0e04096fd785e644e9da739240fcba05, type: 2}
