%YAML 1.1
%TAG !u! tag:unity3d.com,2011:
--- !u!114 &11400000
MonoBehaviour:
  m_ObjectHideFlags: 0
  m_CorrespondingSourceObject: {fileID: 0}
  m_PrefabInstance: {fileID: 0}
  m_PrefabAsset: {fileID: 0}
  m_GameObject: {fileID: 0}
  m_Enabled: 1
  m_EditorHideFlags: 0
  m_Script: {fileID: 11500000, guid: 9898f0ebced24e59acc923ba70d5e8e2, type: 3}
  m_Name: assault_lv4_a
  m_EditorClassIdentifier: 
  enumValue: {fileID: 11400000, guid: 71964704ed0bb60478918d700462b86a, type: 2}
  towerPrefab: {fileID: 3677258560958360516, guid: d89ae368a52214643b4de2b97a1a554f, type: 3}
  displayName: assault_lv4_a
  description:
  - Line 1
  - Line 2
  - Line 3
  forSell: 0
  price: 230
  upgradeTowers:
  - {fileID: 11400000, guid: f3fc78003c1698443bc6992abbf40f9a, type: 2}
