%YAML 1.1
%TAG !u! tag:unity3d.com,2011:
--- !u!114 &11400000
MonoBehaviour:
  m_ObjectHideFlags: 0
  m_CorrespondingSourceObject: {fileID: 0}
  m_PrefabInstance: {fileID: 0}
  m_PrefabAsset: {fileID: 0}
  m_GameObject: {fileID: 0}
  m_Enabled: 1
  m_EditorHideFlags: 0
  m_Script: {fileID: 11500000, guid: 9898f0ebced24e59acc923ba70d5e8e2, type: 3}
  m_Name: assault_lv2_sell
  m_EditorClassIdentifier: 
  enumValue: {fileID: 11400000, guid: 54c0479a70805bf4aada1ca011edbecb, type: 2}
  towerPrefab: {fileID: 3677258560958360516, guid: 0c5857b815a79794b80eb4f6a7436b56, type: 3}
  displayName: assault_lv2_sell
  description:
  - Line 1
  - Line 2
  - Line 3
  forSell: 1
  price: 100
  instantBuild: 1
  upgradeTowers:
  - {fileID: 11400000, guid: 8320f062f0655994287b63cb1c15586d, type: 2}
  - {fileID: 11400000, guid: badf976cbbe9e2a4ab9d7a35b49b600e, type: 2}
  - {fileID: 11400000, guid: 68ee52bd29f6c524d984f3619b01c0ce, type: 2}
  - {fileID: 11400000, guid: cc3f690987c55774c8af616f896759ba, type: 2}
