%YAML 1.1
%TAG !u! tag:unity3d.com,2011:
--- !u!114 &11400000
MonoBehaviour:
  m_ObjectHideFlags: 0
  m_CorrespondingSourceObject: {fileID: 0}
  m_PrefabInstance: {fileID: 0}
  m_PrefabAsset: {fileID: 0}
  m_GameObject: {fileID: 0}
  m_Enabled: 1
  m_EditorHideFlags: 0
  m_Script: {fileID: 11500000, guid: 8db1f08d2dc84dbc964467e25dbe2e29, type: 3}
  m_Name: level2_wave_1
  m_EditorClassIdentifier: 
  waveDelay: 20
  wavesEvents:
  - eventStartTime: 1
    entranceType: 0
    entityType: 0
    spawnCount: 3
    spawnDelay: 1
  - eventStartTime: 5
    entranceType: 0
    entityType: 3
    spawnCount: 4
    spawnDelay: 1
  - eventStartTime: 10
    entranceType: 0
    entityType: 5
    spawnCount: 2
    spawnDelay: 1
